^C:\USERS\ВАЛЕНТИН\SOURCE\REPOS\PROJECT8\PROJECT8\CREATEDATA.C|C:\USERS\ВАЛЕНТИН\SOURCE\REPOS\PROJECT8\PROJECT8\SOURCE.C
C:\USERS\валентин\SOURCE\REPOS\PROJECT8\PROJECT8\DEBUG\VC141.PDB
C:\USERS\валентин\SOURCE\REPOS\PROJECT8\PROJECT8\DEBUG\VC141.IDB
C:\USERS\валентин\SOURCE\REPOS\PROJECT8\PROJECT8\DEBUG\CREATEDATA.OBJ
C:\USERS\валентин\SOURCE\REPOS\PROJECT8\PROJECT8\DEBUG\SOURCE.OBJ
^C:\USERS\ВАЛЕНТИН\SOURCE\REPOS\PROJECT8\PROJECT8\CGP.C|C:\USERS\ВАЛЕНТИН\SOURCE\REPOS\PROJECT8\PROJECT8\CREATEDATA.C|C:\USERS\ВАЛЕНТИН\SOURCE\REPOS\PROJECT8\PROJECT8\SOURCE.C
C:\USERS\валентин\SOURCE\REPOS\PROJECT8\PROJECT8\DEBUG\VC141.PDB
C:\USERS\валентин\SOURCE\REPOS\PROJECT8\PROJECT8\DEBUG\VC141.IDB
C:\USERS\валентин\SOURCE\REPOS\PROJECT8\PROJECT8\DEBUG\CREATEDATA.OBJ
C:\USERS\валентин\SOURCE\REPOS\PROJECT8\PROJECT8\DEBUG\SOURCE.OBJ
^C:\USERS\ВАЛЕНТИН\SOURCE\REPOS\PROJECT8\PROJECT8\CGP.C|C:\USERS\ВАЛЕНТИН\SOURCE\REPOS\PROJECT8\PROJECT8\SOURCE.C
C:\USERS\валентин\SOURCE\REPOS\PROJECT8\PROJECT8\DEBUG\VC141.PDB
C:\USERS\валентин\SOURCE\REPOS\PROJECT8\PROJECT8\DEBUG\VC141.IDB
C:\USERS\валентин\SOURCE\REPOS\PROJECT8\PROJECT8\DEBUG\CGP.OBJ
C:\USERS\валентин\SOURCE\REPOS\PROJECT8\PROJECT8\DEBUG\SOURCE.OBJ
^C:\USERS\ВАЛЕНТИН\SOURCE\REPOS\PROJECT8\PROJECT8\SOURCE.C
C:\USERS\ВАЛЕНТИН\SOURCE\REPOS\PROJECT8\PROJECT8\DEBUG\VC141.PDB
^C:\USERS\ВАЛЕНТИН\SOURCE\REPOS\PROJECT8\PROJECT8\CREATEDATA.C|C:\USERS\ВАЛЕНТИН\SOURCE\REPOS\PROJECT8\PROJECT8\MAIN.C
C:\USERS\валентин\SOURCE\REPOS\PROJECT8\PROJECT8\DEBUG\VC141.PDB
C:\USERS\валентин\SOURCE\REPOS\PROJECT8\PROJECT8\DEBUG\VC141.IDB
C:\USERS\валентин\SOURCE\REPOS\PROJECT8\PROJECT8\DEBUG\MAIN.OBJ
C:\USERS\валентин\SOURCE\REPOS\PROJECT8\PROJECT8\DEBUG\CREATEDATA.OBJ
^C:\USERS\ВАЛЕНТИН\SOURCE\REPOS\PROJECT8\PROJECT8\CGP.C|C:\USERS\ВАЛЕНТИН\SOURCE\REPOS\PROJECT8\PROJECT8\CREATEDATA.C|C:\USERS\ВАЛЕНТИН\SOURCE\REPOS\PROJECT8\PROJECT8\MAIN.C|C:\USERS\ВАЛЕНТИН\SOURCE\REPOS\PROJECT8\PROJECT8\REPLACE.C
C:\USERS\валентин\SOURCE\REPOS\PROJECT8\PROJECT8\DEBUG\VC141.PDB
C:\USERS\валентин\SOURCE\REPOS\PROJECT8\PROJECT8\DEBUG\VC141.IDB
C:\USERS\валентин\SOURCE\REPOS\PROJECT8\PROJECT8\DEBUG\MAIN.OBJ
C:\USERS\валентин\SOURCE\REPOS\PROJECT8\PROJECT8\DEBUG\CREATEDATA.OBJ
C:\USERS\валентин\SOURCE\REPOS\PROJECT8\PROJECT8\DEBUG\CGP.OBJ
^C:\USERS\ВАЛЕНТИН\SOURCE\REPOS\PROJECT8\PROJECT8\CGP.C|C:\USERS\ВАЛЕНТИН\SOURCE\REPOS\PROJECT8\PROJECT8\CREATEDATA.C|C:\USERS\ВАЛЕНТИН\SOURCE\REPOS\PROJECT8\PROJECT8\MAIN.C
C:\USERS\валентин\SOURCE\REPOS\PROJECT8\PROJECT8\DEBUG\VC141.PDB
C:\USERS\валентин\SOURCE\REPOS\PROJECT8\PROJECT8\DEBUG\VC141.IDB
C:\USERS\валентин\SOURCE\REPOS\PROJECT8\PROJECT8\DEBUG\MAIN.OBJ
C:\USERS\валентин\SOURCE\REPOS\PROJECT8\PROJECT8\DEBUG\CREATEDATA.OBJ
C:\USERS\валентин\SOURCE\REPOS\PROJECT8\PROJECT8\DEBUG\CGP.OBJ
^C:\USERS\ВАЛЕНТИН\SOURCE\REPOS\PROJECT8\PROJECT8\CREATEDATA.C
C:\USERS\ВАЛЕНТИН\SOURCE\REPOS\PROJECT8\PROJECT8\DEBUG\VC141.PDB
^C:\USERS\ВАЛЕНТИН\SOURCE\REPOS\PROJECT8\PROJECT8\MAIN.C
C:\USERS\валентин\SOURCE\REPOS\PROJECT8\PROJECT8\DEBUG\VC141.PDB
C:\USERS\валентин\SOURCE\REPOS\PROJECT8\PROJECT8\DEBUG\VC141.IDB
C:\USERS\валентин\SOURCE\REPOS\PROJECT8\PROJECT8\DEBUG\MAIN.OBJ
^C:\USERS\ВАЛЕНТИН\SOURCE\REPOS\PROJECT8\PROJECT8\CGP.C
C:\USERS\валентин\SOURCE\REPOS\PROJECT8\PROJECT8\DEBUG\VC141.PDB
C:\USERS\валентин\SOURCE\REPOS\PROJECT8\PROJECT8\DEBUG\VC141.IDB
C:\USERS\валентин\SOURCE\REPOS\PROJECT8\PROJECT8\DEBUG\CGP.OBJ
