4,1,75,
-9.974975, 1.271706, -6.133915, 6.17481, -16.761467,
1.700186, -0.402539, -2.994171, 7.919248, -6.189174,
6.456801, 4.932096, -6.517838, 7.178869, -3.871713,
4.210028, 0.270699, -3.920103, -9.700308, -5.352036,
-8.171941, -2.710959, -7.053743, -6.682028, -20.516807,
9.770501, -1.086154, -7.618336, -9.906613, -3.23473,
-9.821772, -2.442396, 0.633259, 1.423688, -14.632133,
2.035279, 2.143315, -6.675314, 3.260903, -3.027477,
-0.984222, -2.957549, -8.859218, 2.153691, -15.305142,
5.666372, 6.052126, 0.397656, -3.960997, 1.21042,
7.519456, 4.533525, 9.118015, 8.514359, 12.429893,
0.787072, -7.153233, -0.758385, -5.293435, -5.169111,
7.244789, -5.807978, 5.593127, 6.873074, 8.855221,
9.935911, 9.993896, 2.229987, -2.15125, 7.168313,
-4.675741, -4.054384, 6.802881, -9.525132, -3.102441,
-2.482681, -8.147526, 3.544115, -8.875698, -4.104336,
-9.824213, 8.375805, -4.482253, -4.54207, -19.244482,
1.758171, 3.823664, 6.75222, 4.529862, 3.37853,
-0.301218, -5.892819, 4.874722, -0.630818, -0.704005,
-0.840785, 8.983123, 4.88876, -7.834407, -0.881106,
1.980956, -2.295297, 4.700156, 2.179327, 1.186565,
1.448103, -2.773217, -6.968902, -5.497909, -10.817273,
-1.496933, 6.057619, 0.342112, 9.799799, -5.645199,
5.030976, -3.088778, -6.62038, 3.146153, -7.136319,
-0.162053, -8.729209, 3.995178, 0.096133, -1.429459,
-1.266213, -5.351421, 1.55736, 0.65157, -5.031852,
2.573626, -6.796167, 0.082705, 9.260842, -2.150686,
3.91522, 8.496048, -6.201056, -3.281045, -7.239643,
-6.432997, 9.903562, -0.851161, 9.960326, -11.905128,
-8.049867, 2.503433, -8.112125, -1.24546, -19.313649,
8.630329, -9.031343, 7.892392, -4.199652, 11.334028,
-5.453963, 5.381329, -1.785638, -5.96057, -12.027467,
2.561419, 2.082888, -0.967742, -0.672933, 8.50825,
1.956542, 2.694479, 7.095859, 6.575823, 7.228972,
2.495499, 4.418165, 1.315043, -2.49733, -0.893606,
-6.314585, 4.758141, 1.102634, 8.101749, -9.373594,
-5.142674, -6.221198, 2.094485, 3.970153, -8.662473,
1.692251, -2.974029, -0.110782, -8.392285, -3.689057,
4.814905, 2.240974, 2.407605, 3.822443, 5.913103,
6.090579, -7.017731, 1.520737, 7.354656, 3.238619,
8.231147, 2.294076, 4.553667, -9.135716, 11.119222,
3.35551, 9.530625, -3.699759, 1.384014, -5.428096,
-3.88348, -6.5215, -7.828913, 7.380902, -16.105579,
7.024445, 4.886319, -6.902371, -3.461715, -4.637153,
-8.413038, -8.467971, 2.819605, 6.400037, -8.189191,
0.901822, -1.034883, -1.820429, -4.025086, -6.347859,
-0.688803, 0.02411, -6.946928, -3.539232, -13.246662,
4.759972, -3.722343, 6.533708, 9.181494, 6.433244,
7.466964, 4.500565, -3.99884, 8.879971, -0.784741,
-7.455367, -8.685263, 5.699332, 0.491653, -7.031165,
2.192755, 9.122288, -8.554643, 7.512741, -10.560433,
3.077181, -3.557543, -7.903989, 0.101016, -10.176264,
-5.458235, -4.194159, 8.399609, 1.023286, -2.421004,
3.25602, -7.709281, -0.149236, -2.417371, -2.115012,
-0.063784, 5.867183, 0.185247, -2.352672, -4.739672,
3.763237, 0.643025, 2.125614, -2.096316, 0.028405,
-9.882199, 4.157537, -7.987609, 2.461318, -22.688908,
7.264931, -0.169988, 4.946745, -0.061953, 6.585881,
-2.397839, 5.707266, 1.056246, -2.858058, -6.184745,
9.114353, 2.616962, -6.468398, -2.51503, -0.85064,
-7.367473, 4.865566, 9.034394, 2.239753, -3.250048,
-9.443342, -3.403119, -8.881802, 2.784204, -23.821187,
-7.367473, 6.941435, 7.286294, 1.93762, -5.12497,
4.432814, 7.079379, -9.706412, -7.470626, -10.15096,
4.158147, 2.342906, -5.648671, -8.68099, -3.642388,
-6.621601, 2.48207, -3.180334, -3.611866, -12.831587,
-2.648701, 3.220008, 6.047853, 6.137577, 6.487452,
0.530717, 2.222053, 5.963622, 8.012024, 6.494787,
-7.103793, 2.603534, -1.951659, -4.925993, -12.49007,
-7.269204, 7.103793, -8.676717, -1.443831, -20.884328,
1.467025, -3.954283, 0.961028, -5.488754, -2.826935,
-3.773003, -7.787408, 6.160772, -7.305826, -2.789559,
-4.315012, 5.7622, 7.904599, 5.792718, -5.968963,
4.875942, 2.304453, -2.77749, 7.133091, 1.265577,
-5.430158, 7.271645, -5.411237, -5.009003, -15.742536,
