digraph NeuralNetwork {
rankdir=LR;
size="4,3";
center = true;
node0 [label="(0) Input", color=black, labelfontcolor=black, fontcolor=black];
node1 [label="(1) Input", color=black, labelfontcolor=black, fontcolor=black];
node2 [label="(2) Input", color=black, labelfontcolor=black, fontcolor=black];
node3 [label="(3) Input", color=black, labelfontcolor=black, fontcolor=black];
node4 [label="(4) mul", color=lightgrey, labelfontcolor=lightgrey, fontcolor=lightgrey];
node2 -> node4 [label=" (0)", labelfontcolor=lightgrey, fontcolor=lightgrey, bold=true, color=lightgrey];
node3 -> node4 [label=" (1)", labelfontcolor=lightgrey, fontcolor=lightgrey, bold=true, color=lightgrey];
node5 [label="(5) linear", color=lightgrey, labelfontcolor=lightgrey, fontcolor=lightgrey];
node0 -> node5 [label=" (0)", labelfontcolor=lightgrey, fontcolor=lightgrey, bold=true, color=lightgrey];
node6 [label="(6) add", color=lightgrey, labelfontcolor=lightgrey, fontcolor=lightgrey];
node0 -> node6 [label=" (0)", labelfontcolor=lightgrey, fontcolor=lightgrey, bold=true, color=lightgrey];
node2 -> node6 [label=" (1)", labelfontcolor=lightgrey, fontcolor=lightgrey, bold=true, color=lightgrey];
node7 [label="(7) div", color=lightgrey, labelfontcolor=lightgrey, fontcolor=lightgrey];
node1 -> node7 [label=" (0)", labelfontcolor=lightgrey, fontcolor=lightgrey, bold=true, color=lightgrey];
node1 -> node7 [label=" (1)", labelfontcolor=lightgrey, fontcolor=lightgrey, bold=true, color=lightgrey];
node8 [label="(8) div", color=lightgrey, labelfontcolor=lightgrey, fontcolor=lightgrey];
node7 -> node8 [label=" (0)", labelfontcolor=lightgrey, fontcolor=lightgrey, bold=true, color=lightgrey];
node1 -> node8 [label=" (1)", labelfontcolor=lightgrey, fontcolor=lightgrey, bold=true, color=lightgrey];
node9 [label="(9) hyperbola", color=lightgrey, labelfontcolor=lightgrey, fontcolor=lightgrey];
node0 -> node9 [label=" (0)", labelfontcolor=lightgrey, fontcolor=lightgrey, bold=true, color=lightgrey];
node10 [label="(10) sub", color=lightgrey, labelfontcolor=lightgrey, fontcolor=lightgrey];
node0 -> node10 [label=" (0)", labelfontcolor=lightgrey, fontcolor=lightgrey, bold=true, color=lightgrey];
node0 -> node10 [label=" (1)", labelfontcolor=lightgrey, fontcolor=lightgrey, bold=true, color=lightgrey];
node11 [label="(11) hyperbola", color=black, labelfontcolor=black, fontcolor=black];
node3 -> node11 [label=" (0)", labelfontcolor=black, fontcolor=black, bold=true, color=black];
node12 [label="(12) hyperbola", color=lightgrey, labelfontcolor=lightgrey, fontcolor=lightgrey];
node3 -> node12 [label=" (0)", labelfontcolor=lightgrey, fontcolor=lightgrey, bold=true, color=lightgrey];
node13 [label="(13) add", color=black, labelfontcolor=black, fontcolor=black];
node11 -> node13 [label=" (0)", labelfontcolor=black, fontcolor=black, bold=true, color=black];
node0 -> node13 [label=" (1)", labelfontcolor=black, fontcolor=black, bold=true, color=black];
node14 [label="(14) linear", color=lightgrey, labelfontcolor=lightgrey, fontcolor=lightgrey];
node3 -> node14 [label=" (0)", labelfontcolor=lightgrey, fontcolor=lightgrey, bold=true, color=lightgrey];
node15 [label="(15) add", color=lightgrey, labelfontcolor=lightgrey, fontcolor=lightgrey];
node2 -> node15 [label=" (0)", labelfontcolor=lightgrey, fontcolor=lightgrey, bold=true, color=lightgrey];
node12 -> node15 [label=" (1)", labelfontcolor=lightgrey, fontcolor=lightgrey, bold=true, color=lightgrey];
node16 [label="(16) mul", color=lightgrey, labelfontcolor=lightgrey, fontcolor=lightgrey];
node13 -> node16 [label=" (0)", labelfontcolor=lightgrey, fontcolor=lightgrey, bold=true, color=lightgrey];
node4 -> node16 [label=" (1)", labelfontcolor=lightgrey, fontcolor=lightgrey, bold=true, color=lightgrey];
node17 [label="(17) div", color=lightgrey, labelfontcolor=lightgrey, fontcolor=lightgrey];
node13 -> node17 [label=" (0)", labelfontcolor=lightgrey, fontcolor=lightgrey, bold=true, color=lightgrey];
node9 -> node17 [label=" (1)", labelfontcolor=lightgrey, fontcolor=lightgrey, bold=true, color=lightgrey];
node18 [label="(18) sub", color=lightgrey, labelfontcolor=lightgrey, fontcolor=lightgrey];
node7 -> node18 [label=" (0)", labelfontcolor=lightgrey, fontcolor=lightgrey, bold=true, color=lightgrey];
node1 -> node18 [label=" (1)", labelfontcolor=lightgrey, fontcolor=lightgrey, bold=true, color=lightgrey];
node19 [label="(19) div", color=lightgrey, labelfontcolor=lightgrey, fontcolor=lightgrey];
node13 -> node19 [label=" (0)", labelfontcolor=lightgrey, fontcolor=lightgrey, bold=true, color=lightgrey];
node18 -> node19 [label=" (1)", labelfontcolor=lightgrey, fontcolor=lightgrey, bold=true, color=lightgrey];
node20 [label="(20) linear", color=lightgrey, labelfontcolor=lightgrey, fontcolor=lightgrey];
node1 -> node20 [label=" (0)", labelfontcolor=lightgrey, fontcolor=lightgrey, bold=true, color=lightgrey];
node21 [label="(21) sub", color=lightgrey, labelfontcolor=lightgrey, fontcolor=lightgrey];
node17 -> node21 [label=" (0)", labelfontcolor=lightgrey, fontcolor=lightgrey, bold=true, color=lightgrey];
node0 -> node21 [label=" (1)", labelfontcolor=lightgrey, fontcolor=lightgrey, bold=true, color=lightgrey];
node22 [label="(22) div", color=lightgrey, labelfontcolor=lightgrey, fontcolor=lightgrey];
node5 -> node22 [label=" (0)", labelfontcolor=lightgrey, fontcolor=lightgrey, bold=true, color=lightgrey];
node18 -> node22 [label=" (1)", labelfontcolor=lightgrey, fontcolor=lightgrey, bold=true, color=lightgrey];
node23 [label="(23) hyperbola", color=lightgrey, labelfontcolor=lightgrey, fontcolor=lightgrey];
node0 -> node23 [label=" (0)", labelfontcolor=lightgrey, fontcolor=lightgrey, bold=true, color=lightgrey];
node24 [label="(24) sub", color=lightgrey, labelfontcolor=lightgrey, fontcolor=lightgrey];
node2 -> node24 [label=" (0)", labelfontcolor=lightgrey, fontcolor=lightgrey, bold=true, color=lightgrey];
node2 -> node24 [label=" (1)", labelfontcolor=lightgrey, fontcolor=lightgrey, bold=true, color=lightgrey];
node25 [label="(25) div", color=lightgrey, labelfontcolor=lightgrey, fontcolor=lightgrey];
node2 -> node25 [label=" (0)", labelfontcolor=lightgrey, fontcolor=lightgrey, bold=true, color=lightgrey];
node2 -> node25 [label=" (1)", labelfontcolor=lightgrey, fontcolor=lightgrey, bold=true, color=lightgrey];
node26 [label="(26) div", color=lightgrey, labelfontcolor=lightgrey, fontcolor=lightgrey];
node3 -> node26 [label=" (0)", labelfontcolor=lightgrey, fontcolor=lightgrey, bold=true, color=lightgrey];
node7 -> node26 [label=" (1)", labelfontcolor=lightgrey, fontcolor=lightgrey, bold=true, color=lightgrey];
node27 [label="(27) div", color=lightgrey, labelfontcolor=lightgrey, fontcolor=lightgrey];
node18 -> node27 [label=" (0)", labelfontcolor=lightgrey, fontcolor=lightgrey, bold=true, color=lightgrey];
node7 -> node27 [label=" (1)", labelfontcolor=lightgrey, fontcolor=lightgrey, bold=true, color=lightgrey];
node28 [label="(28) add", color=lightgrey, labelfontcolor=lightgrey, fontcolor=lightgrey];
node15 -> node28 [label=" (0)", labelfontcolor=lightgrey, fontcolor=lightgrey, bold=true, color=lightgrey];
node9 -> node28 [label=" (1)", labelfontcolor=lightgrey, fontcolor=lightgrey, bold=true, color=lightgrey];
node29 [label="(29) linear", color=lightgrey, labelfontcolor=lightgrey, fontcolor=lightgrey];
node3 -> node29 [label=" (0)", labelfontcolor=lightgrey, fontcolor=lightgrey, bold=true, color=lightgrey];
node30 [label="(30) mul", color=lightgrey, labelfontcolor=lightgrey, fontcolor=lightgrey];
node22 -> node30 [label=" (0)", labelfontcolor=lightgrey, fontcolor=lightgrey, bold=true, color=lightgrey];
node19 -> node30 [label=" (1)", labelfontcolor=lightgrey, fontcolor=lightgrey, bold=true, color=lightgrey];
node31 [label="(31) add", color=lightgrey, labelfontcolor=lightgrey, fontcolor=lightgrey];
node3 -> node31 [label=" (0)", labelfontcolor=lightgrey, fontcolor=lightgrey, bold=true, color=lightgrey];
node0 -> node31 [label=" (1)", labelfontcolor=lightgrey, fontcolor=lightgrey, bold=true, color=lightgrey];
node32 [label="(32) hyperbola", color=lightgrey, labelfontcolor=lightgrey, fontcolor=lightgrey];
node1 -> node32 [label=" (0)", labelfontcolor=lightgrey, fontcolor=lightgrey, bold=true, color=lightgrey];
node33 [label="(33) add", color=lightgrey, labelfontcolor=lightgrey, fontcolor=lightgrey];
node19 -> node33 [label=" (0)", labelfontcolor=lightgrey, fontcolor=lightgrey, bold=true, color=lightgrey];
node3 -> node33 [label=" (1)", labelfontcolor=lightgrey, fontcolor=lightgrey, bold=true, color=lightgrey];
node34 [label="(34) hyperbola", color=black, labelfontcolor=black, fontcolor=black];
node1 -> node34 [label=" (0)", labelfontcolor=black, fontcolor=black, bold=true, color=black];
node35 [label="(35) add", color=lightgrey, labelfontcolor=lightgrey, fontcolor=lightgrey];
node30 -> node35 [label=" (0)", labelfontcolor=lightgrey, fontcolor=lightgrey, bold=true, color=lightgrey];
node9 -> node35 [label=" (1)", labelfontcolor=lightgrey, fontcolor=lightgrey, bold=true, color=lightgrey];
node36 [label="(36) hyperbola", color=lightgrey, labelfontcolor=lightgrey, fontcolor=lightgrey];
node1 -> node36 [label=" (0)", labelfontcolor=lightgrey, fontcolor=lightgrey, bold=true, color=lightgrey];
node37 [label="(37) linear", color=lightgrey, labelfontcolor=lightgrey, fontcolor=lightgrey];
node0 -> node37 [label=" (0)", labelfontcolor=lightgrey, fontcolor=lightgrey, bold=true, color=lightgrey];
node38 [label="(38) linear", color=lightgrey, labelfontcolor=lightgrey, fontcolor=lightgrey];
node1 -> node38 [label=" (0)", labelfontcolor=lightgrey, fontcolor=lightgrey, bold=true, color=lightgrey];
node39 [label="(39) linear", color=lightgrey, labelfontcolor=lightgrey, fontcolor=lightgrey];
node1 -> node39 [label=" (0)", labelfontcolor=lightgrey, fontcolor=lightgrey, bold=true, color=lightgrey];
node40 [label="(40) linear", color=lightgrey, labelfontcolor=lightgrey, fontcolor=lightgrey];
node2 -> node40 [label=" (0)", labelfontcolor=lightgrey, fontcolor=lightgrey, bold=true, color=lightgrey];
node41 [label="(41) div", color=lightgrey, labelfontcolor=lightgrey, fontcolor=lightgrey];
node23 -> node41 [label=" (0)", labelfontcolor=lightgrey, fontcolor=lightgrey, bold=true, color=lightgrey];
node20 -> node41 [label=" (1)", labelfontcolor=lightgrey, fontcolor=lightgrey, bold=true, color=lightgrey];
node42 [label="(42) mul", color=lightgrey, labelfontcolor=lightgrey, fontcolor=lightgrey];
node37 -> node42 [label=" (0)", labelfontcolor=lightgrey, fontcolor=lightgrey, bold=true, color=lightgrey];
node4 -> node42 [label=" (1)", labelfontcolor=lightgrey, fontcolor=lightgrey, bold=true, color=lightgrey];
node43 [label="(43) linear", color=lightgrey, labelfontcolor=lightgrey, fontcolor=lightgrey];
node2 -> node43 [label=" (0)", labelfontcolor=lightgrey, fontcolor=lightgrey, bold=true, color=lightgrey];
node44 [label="(44) mul", color=lightgrey, labelfontcolor=lightgrey, fontcolor=lightgrey];
node39 -> node44 [label=" (0)", labelfontcolor=lightgrey, fontcolor=lightgrey, bold=true, color=lightgrey];
node37 -> node44 [label=" (1)", labelfontcolor=lightgrey, fontcolor=lightgrey, bold=true, color=lightgrey];
node45 [label="(45) add", color=lightgrey, labelfontcolor=lightgrey, fontcolor=lightgrey];
node37 -> node45 [label=" (0)", labelfontcolor=lightgrey, fontcolor=lightgrey, bold=true, color=lightgrey];
node0 -> node45 [label=" (1)", labelfontcolor=lightgrey, fontcolor=lightgrey, bold=true, color=lightgrey];
node46 [label="(46) hyperbola", color=lightgrey, labelfontcolor=lightgrey, fontcolor=lightgrey];
node3 -> node46 [label=" (0)", labelfontcolor=lightgrey, fontcolor=lightgrey, bold=true, color=lightgrey];
node47 [label="(47) sub", color=lightgrey, labelfontcolor=lightgrey, fontcolor=lightgrey];
node28 -> node47 [label=" (0)", labelfontcolor=lightgrey, fontcolor=lightgrey, bold=true, color=lightgrey];
node16 -> node47 [label=" (1)", labelfontcolor=lightgrey, fontcolor=lightgrey, bold=true, color=lightgrey];
node48 [label="(48) mul", color=lightgrey, labelfontcolor=lightgrey, fontcolor=lightgrey];
node14 -> node48 [label=" (0)", labelfontcolor=lightgrey, fontcolor=lightgrey, bold=true, color=lightgrey];
node37 -> node48 [label=" (1)", labelfontcolor=lightgrey, fontcolor=lightgrey, bold=true, color=lightgrey];
node49 [label="(49) div", color=lightgrey, labelfontcolor=lightgrey, fontcolor=lightgrey];
node27 -> node49 [label=" (0)", labelfontcolor=lightgrey, fontcolor=lightgrey, bold=true, color=lightgrey];
node11 -> node49 [label=" (1)", labelfontcolor=lightgrey, fontcolor=lightgrey, bold=true, color=lightgrey];
node50 [label="(50) linear", color=lightgrey, labelfontcolor=lightgrey, fontcolor=lightgrey];
node2 -> node50 [label=" (0)", labelfontcolor=lightgrey, fontcolor=lightgrey, bold=true, color=lightgrey];
node51 [label="(51) add", color=lightgrey, labelfontcolor=lightgrey, fontcolor=lightgrey];
node22 -> node51 [label=" (0)", labelfontcolor=lightgrey, fontcolor=lightgrey, bold=true, color=lightgrey];
node45 -> node51 [label=" (1)", labelfontcolor=lightgrey, fontcolor=lightgrey, bold=true, color=lightgrey];
node52 [label="(52) mul", color=lightgrey, labelfontcolor=lightgrey, fontcolor=lightgrey];
node49 -> node52 [label=" (0)", labelfontcolor=lightgrey, fontcolor=lightgrey, bold=true, color=lightgrey];
node29 -> node52 [label=" (1)", labelfontcolor=lightgrey, fontcolor=lightgrey, bold=true, color=lightgrey];
node53 [label="(53) sub", color=lightgrey, labelfontcolor=lightgrey, fontcolor=lightgrey];
node17 -> node53 [label=" (0)", labelfontcolor=lightgrey, fontcolor=lightgrey, bold=true, color=lightgrey];
node25 -> node53 [label=" (1)", labelfontcolor=lightgrey, fontcolor=lightgrey, bold=true, color=lightgrey];
node54 [label="(54) linear", color=lightgrey, labelfontcolor=lightgrey, fontcolor=lightgrey];
node1 -> node54 [label=" (0)", labelfontcolor=lightgrey, fontcolor=lightgrey, bold=true, color=lightgrey];
node55 [label="(55) hyperbola", color=lightgrey, labelfontcolor=lightgrey, fontcolor=lightgrey];
node2 -> node55 [label=" (0)", labelfontcolor=lightgrey, fontcolor=lightgrey, bold=true, color=lightgrey];
node56 [label="(56) sub", color=lightgrey, labelfontcolor=lightgrey, fontcolor=lightgrey];
node2 -> node56 [label=" (0)", labelfontcolor=lightgrey, fontcolor=lightgrey, bold=true, color=lightgrey];
node27 -> node56 [label=" (1)", labelfontcolor=lightgrey, fontcolor=lightgrey, bold=true, color=lightgrey];
node57 [label="(57) hyperbola", color=lightgrey, labelfontcolor=lightgrey, fontcolor=lightgrey];
node3 -> node57 [label=" (0)", labelfontcolor=lightgrey, fontcolor=lightgrey, bold=true, color=lightgrey];
node58 [label="(58) mul", color=lightgrey, labelfontcolor=lightgrey, fontcolor=lightgrey];
node56 -> node58 [label=" (0)", labelfontcolor=lightgrey, fontcolor=lightgrey, bold=true, color=lightgrey];
node34 -> node58 [label=" (1)", labelfontcolor=lightgrey, fontcolor=lightgrey, bold=true, color=lightgrey];
node59 [label="(59) add", color=black, labelfontcolor=black, fontcolor=black];
node13 -> node59 [label=" (0)", labelfontcolor=black, fontcolor=black, bold=true, color=black];
node34 -> node59 [label=" (1)", labelfontcolor=black, fontcolor=black, bold=true, color=black];
node60 [label="(60) div", color=lightgrey, labelfontcolor=lightgrey, fontcolor=lightgrey];
node19 -> node60 [label=" (0)", labelfontcolor=lightgrey, fontcolor=lightgrey, bold=true, color=lightgrey];
node38 -> node60 [label=" (1)", labelfontcolor=lightgrey, fontcolor=lightgrey, bold=true, color=lightgrey];
node61 [label="(61) linear", color=lightgrey, labelfontcolor=lightgrey, fontcolor=lightgrey];
node0 -> node61 [label=" (0)", labelfontcolor=lightgrey, fontcolor=lightgrey, bold=true, color=lightgrey];
node62 [label="(62) mul", color=lightgrey, labelfontcolor=lightgrey, fontcolor=lightgrey];
node1 -> node62 [label=" (0)", labelfontcolor=lightgrey, fontcolor=lightgrey, bold=true, color=lightgrey];
node44 -> node62 [label=" (1)", labelfontcolor=lightgrey, fontcolor=lightgrey, bold=true, color=lightgrey];
node63 [label="(63) div", color=lightgrey, labelfontcolor=lightgrey, fontcolor=lightgrey];
node1 -> node63 [label=" (0)", labelfontcolor=lightgrey, fontcolor=lightgrey, bold=true, color=lightgrey];
node2 -> node63 [label=" (1)", labelfontcolor=lightgrey, fontcolor=lightgrey, bold=true, color=lightgrey];
node64 [label="(64) hyperbola", color=lightgrey, labelfontcolor=lightgrey, fontcolor=lightgrey];
node2 -> node64 [label=" (0)", labelfontcolor=lightgrey, fontcolor=lightgrey, bold=true, color=lightgrey];
node65 [label="(65) linear", color=lightgrey, labelfontcolor=lightgrey, fontcolor=lightgrey];
node1 -> node65 [label=" (0)", labelfontcolor=lightgrey, fontcolor=lightgrey, bold=true, color=lightgrey];
node66 [label="(66) sub", color=lightgrey, labelfontcolor=lightgrey, fontcolor=lightgrey];
node32 -> node66 [label=" (0)", labelfontcolor=lightgrey, fontcolor=lightgrey, bold=true, color=lightgrey];
node20 -> node66 [label=" (1)", labelfontcolor=lightgrey, fontcolor=lightgrey, bold=true, color=lightgrey];
node67 [label="(67) div", color=lightgrey, labelfontcolor=lightgrey, fontcolor=lightgrey];
node5 -> node67 [label=" (0)", labelfontcolor=lightgrey, fontcolor=lightgrey, bold=true, color=lightgrey];
node34 -> node67 [label=" (1)", labelfontcolor=lightgrey, fontcolor=lightgrey, bold=true, color=lightgrey];
node68 [label="(68) add", color=lightgrey, labelfontcolor=lightgrey, fontcolor=lightgrey];
node57 -> node68 [label=" (0)", labelfontcolor=lightgrey, fontcolor=lightgrey, bold=true, color=lightgrey];
node30 -> node68 [label=" (1)", labelfontcolor=lightgrey, fontcolor=lightgrey, bold=true, color=lightgrey];
node69 [label="(69) hyperbola", color=lightgrey, labelfontcolor=lightgrey, fontcolor=lightgrey];
node1 -> node69 [label=" (0)", labelfontcolor=lightgrey, fontcolor=lightgrey, bold=true, color=lightgrey];
node70 [label="(70) div", color=lightgrey, labelfontcolor=lightgrey, fontcolor=lightgrey];
node14 -> node70 [label=" (0)", labelfontcolor=lightgrey, fontcolor=lightgrey, bold=true, color=lightgrey];
node49 -> node70 [label=" (1)", labelfontcolor=lightgrey, fontcolor=lightgrey, bold=true, color=lightgrey];
node71 [label="(71) mul", color=lightgrey, labelfontcolor=lightgrey, fontcolor=lightgrey];
node63 -> node71 [label=" (0)", labelfontcolor=lightgrey, fontcolor=lightgrey, bold=true, color=lightgrey];
node56 -> node71 [label=" (1)", labelfontcolor=lightgrey, fontcolor=lightgrey, bold=true, color=lightgrey];
node72 [label="(72) linear", color=lightgrey, labelfontcolor=lightgrey, fontcolor=lightgrey];
node3 -> node72 [label=" (0)", labelfontcolor=lightgrey, fontcolor=lightgrey, bold=true, color=lightgrey];
node73 [label="(73) add", color=lightgrey, labelfontcolor=lightgrey, fontcolor=lightgrey];
node15 -> node73 [label=" (0)", labelfontcolor=lightgrey, fontcolor=lightgrey, bold=true, color=lightgrey];
node58 -> node73 [label=" (1)", labelfontcolor=lightgrey, fontcolor=lightgrey, bold=true, color=lightgrey];
node74 [label="(74) mul", color=lightgrey, labelfontcolor=lightgrey, fontcolor=lightgrey];
node34 -> node74 [label=" (0)", labelfontcolor=lightgrey, fontcolor=lightgrey, bold=true, color=lightgrey];
node37 -> node74 [label=" (1)", labelfontcolor=lightgrey, fontcolor=lightgrey, bold=true, color=lightgrey];
node75 [label="(75) div", color=lightgrey, labelfontcolor=lightgrey, fontcolor=lightgrey];
node56 -> node75 [label=" (0)", labelfontcolor=lightgrey, fontcolor=lightgrey, bold=true, color=lightgrey];
node32 -> node75 [label=" (1)", labelfontcolor=lightgrey, fontcolor=lightgrey, bold=true, color=lightgrey];
node76 [label="(76) div", color=lightgrey, labelfontcolor=lightgrey, fontcolor=lightgrey];
node52 -> node76 [label=" (0)", labelfontcolor=lightgrey, fontcolor=lightgrey, bold=true, color=lightgrey];
node35 -> node76 [label=" (1)", labelfontcolor=lightgrey, fontcolor=lightgrey, bold=true, color=lightgrey];
node77 [label="(77) sub", color=lightgrey, labelfontcolor=lightgrey, fontcolor=lightgrey];
node55 -> node77 [label=" (0)", labelfontcolor=lightgrey, fontcolor=lightgrey, bold=true, color=lightgrey];
node53 -> node77 [label=" (1)", labelfontcolor=lightgrey, fontcolor=lightgrey, bold=true, color=lightgrey];
node78 [label="(78) add", color=lightgrey, labelfontcolor=lightgrey, fontcolor=lightgrey];
node21 -> node78 [label=" (0)", labelfontcolor=lightgrey, fontcolor=lightgrey, bold=true, color=lightgrey];
node65 -> node78 [label=" (1)", labelfontcolor=lightgrey, fontcolor=lightgrey, bold=true, color=lightgrey];
node79 [label="(79) hyperbola", color=lightgrey, labelfontcolor=lightgrey, fontcolor=lightgrey];
node3 -> node79 [label=" (0)", labelfontcolor=lightgrey, fontcolor=lightgrey, bold=true, color=lightgrey];
node80 [label="(80) add", color=lightgrey, labelfontcolor=lightgrey, fontcolor=lightgrey];
node3 -> node80 [label=" (0)", labelfontcolor=lightgrey, fontcolor=lightgrey, bold=true, color=lightgrey];
node52 -> node80 [label=" (1)", labelfontcolor=lightgrey, fontcolor=lightgrey, bold=true, color=lightgrey];
node81 [label="(81) hyperbola", color=lightgrey, labelfontcolor=lightgrey, fontcolor=lightgrey];
node3 -> node81 [label=" (0)", labelfontcolor=lightgrey, fontcolor=lightgrey, bold=true, color=lightgrey];
node82 [label="(82) div", color=lightgrey, labelfontcolor=lightgrey, fontcolor=lightgrey];
node0 -> node82 [label=" (0)", labelfontcolor=lightgrey, fontcolor=lightgrey, bold=true, color=lightgrey];
node81 -> node82 [label=" (1)", labelfontcolor=lightgrey, fontcolor=lightgrey, bold=true, color=lightgrey];
node83 [label="(83) add", color=lightgrey, labelfontcolor=lightgrey, fontcolor=lightgrey];
node22 -> node83 [label=" (0)", labelfontcolor=lightgrey, fontcolor=lightgrey, bold=true, color=lightgrey];
node74 -> node83 [label=" (1)", labelfontcolor=lightgrey, fontcolor=lightgrey, bold=true, color=lightgrey];
node84 [label="(84) hyperbola", color=lightgrey, labelfontcolor=lightgrey, fontcolor=lightgrey];
node0 -> node84 [label=" (0)", labelfontcolor=lightgrey, fontcolor=lightgrey, bold=true, color=lightgrey];
node85 [label="(85) add", color=lightgrey, labelfontcolor=lightgrey, fontcolor=lightgrey];
node63 -> node85 [label=" (0)", labelfontcolor=lightgrey, fontcolor=lightgrey, bold=true, color=lightgrey];
node47 -> node85 [label=" (1)", labelfontcolor=lightgrey, fontcolor=lightgrey, bold=true, color=lightgrey];
node86 [label="(86) add", color=lightgrey, labelfontcolor=lightgrey, fontcolor=lightgrey];
node73 -> node86 [label=" (0)", labelfontcolor=lightgrey, fontcolor=lightgrey, bold=true, color=lightgrey];
node68 -> node86 [label=" (1)", labelfontcolor=lightgrey, fontcolor=lightgrey, bold=true, color=lightgrey];
node87 [label="(87) add", color=lightgrey, labelfontcolor=lightgrey, fontcolor=lightgrey];
node40 -> node87 [label=" (0)", labelfontcolor=lightgrey, fontcolor=lightgrey, bold=true, color=lightgrey];
node0 -> node87 [label=" (1)", labelfontcolor=lightgrey, fontcolor=lightgrey, bold=true, color=lightgrey];
node88 [label="(88) sub", color=lightgrey, labelfontcolor=lightgrey, fontcolor=lightgrey];
node29 -> node88 [label=" (0)", labelfontcolor=lightgrey, fontcolor=lightgrey, bold=true, color=lightgrey];
node40 -> node88 [label=" (1)", labelfontcolor=lightgrey, fontcolor=lightgrey, bold=true, color=lightgrey];
node89 [label="(89) linear", color=lightgrey, labelfontcolor=lightgrey, fontcolor=lightgrey];
node3 -> node89 [label=" (0)", labelfontcolor=lightgrey, fontcolor=lightgrey, bold=true, color=lightgrey];
node90 [label="(90) hyperbola", color=lightgrey, labelfontcolor=lightgrey, fontcolor=lightgrey];
node3 -> node90 [label=" (0)", labelfontcolor=lightgrey, fontcolor=lightgrey, bold=true, color=lightgrey];
node91 [label="(91) sub", color=lightgrey, labelfontcolor=lightgrey, fontcolor=lightgrey];
node60 -> node91 [label=" (0)", labelfontcolor=lightgrey, fontcolor=lightgrey, bold=true, color=lightgrey];
node86 -> node91 [label=" (1)", labelfontcolor=lightgrey, fontcolor=lightgrey, bold=true, color=lightgrey];
node92 [label="(92) add", color=lightgrey, labelfontcolor=lightgrey, fontcolor=lightgrey];
node44 -> node92 [label=" (0)", labelfontcolor=lightgrey, fontcolor=lightgrey, bold=true, color=lightgrey];
node2 -> node92 [label=" (1)", labelfontcolor=lightgrey, fontcolor=lightgrey, bold=true, color=lightgrey];
node93 [label="(93) linear", color=lightgrey, labelfontcolor=lightgrey, fontcolor=lightgrey];
node0 -> node93 [label=" (0)", labelfontcolor=lightgrey, fontcolor=lightgrey, bold=true, color=lightgrey];
node94 [label="(94) hyperbola", color=lightgrey, labelfontcolor=lightgrey, fontcolor=lightgrey];
node1 -> node94 [label=" (0)", labelfontcolor=lightgrey, fontcolor=lightgrey, bold=true, color=lightgrey];
node95 [label="(95) sub", color=lightgrey, labelfontcolor=lightgrey, fontcolor=lightgrey];
node21 -> node95 [label=" (0)", labelfontcolor=lightgrey, fontcolor=lightgrey, bold=true, color=lightgrey];
node26 -> node95 [label=" (1)", labelfontcolor=lightgrey, fontcolor=lightgrey, bold=true, color=lightgrey];
node96 [label="(96) sub", color=lightgrey, labelfontcolor=lightgrey, fontcolor=lightgrey];
node6 -> node96 [label=" (0)", labelfontcolor=lightgrey, fontcolor=lightgrey, bold=true, color=lightgrey];
node0 -> node96 [label=" (1)", labelfontcolor=lightgrey, fontcolor=lightgrey, bold=true, color=lightgrey];
node97 [label="(97) linear", color=lightgrey, labelfontcolor=lightgrey, fontcolor=lightgrey];
node0 -> node97 [label=" (0)", labelfontcolor=lightgrey, fontcolor=lightgrey, bold=true, color=lightgrey];
node98 [label="(98) hyperbola", color=lightgrey, labelfontcolor=lightgrey, fontcolor=lightgrey];
node0 -> node98 [label=" (0)", labelfontcolor=lightgrey, fontcolor=lightgrey, bold=true, color=lightgrey];
node99 [label="(99) mul", color=lightgrey, labelfontcolor=lightgrey, fontcolor=lightgrey];
node13 -> node99 [label=" (0)", labelfontcolor=lightgrey, fontcolor=lightgrey, bold=true, color=lightgrey];
node18 -> node99 [label=" (1)", labelfontcolor=lightgrey, fontcolor=lightgrey, bold=true, color=lightgrey];
node100 [label="(100) hyperbola", color=lightgrey, labelfontcolor=lightgrey, fontcolor=lightgrey];
node0 -> node100 [label=" (0)", labelfontcolor=lightgrey, fontcolor=lightgrey, bold=true, color=lightgrey];
node101 [label="(101) add", color=lightgrey, labelfontcolor=lightgrey, fontcolor=lightgrey];
node22 -> node101 [label=" (0)", labelfontcolor=lightgrey, fontcolor=lightgrey, bold=true, color=lightgrey];
node32 -> node101 [label=" (1)", labelfontcolor=lightgrey, fontcolor=lightgrey, bold=true, color=lightgrey];
node102 [label="(102) add", color=lightgrey, labelfontcolor=lightgrey, fontcolor=lightgrey];
node80 -> node102 [label=" (0)", labelfontcolor=lightgrey, fontcolor=lightgrey, bold=true, color=lightgrey];
node24 -> node102 [label=" (1)", labelfontcolor=lightgrey, fontcolor=lightgrey, bold=true, color=lightgrey];
node103 [label="(103) add", color=lightgrey, labelfontcolor=lightgrey, fontcolor=lightgrey];
node2 -> node103 [label=" (0)", labelfontcolor=lightgrey, fontcolor=lightgrey, bold=true, color=lightgrey];
node70 -> node103 [label=" (1)", labelfontcolor=lightgrey, fontcolor=lightgrey, bold=true, color=lightgrey];
node104 [label="(104) sub", color=lightgrey, labelfontcolor=lightgrey, fontcolor=lightgrey];
node81 -> node104 [label=" (0)", labelfontcolor=lightgrey, fontcolor=lightgrey, bold=true, color=lightgrey];
node4 -> node104 [label=" (1)", labelfontcolor=lightgrey, fontcolor=lightgrey, bold=true, color=lightgrey];
node105 [label="(105) div", color=lightgrey, labelfontcolor=lightgrey, fontcolor=lightgrey];
node85 -> node105 [label=" (0)", labelfontcolor=lightgrey, fontcolor=lightgrey, bold=true, color=lightgrey];
node2 -> node105 [label=" (1)", labelfontcolor=lightgrey, fontcolor=lightgrey, bold=true, color=lightgrey];
node106 [label="(106) hyperbola", color=lightgrey, labelfontcolor=lightgrey, fontcolor=lightgrey];
node3 -> node106 [label=" (0)", labelfontcolor=lightgrey, fontcolor=lightgrey, bold=true, color=lightgrey];
node107 [label="(107) div", color=lightgrey, labelfontcolor=lightgrey, fontcolor=lightgrey];
node76 -> node107 [label=" (0)", labelfontcolor=lightgrey, fontcolor=lightgrey, bold=true, color=lightgrey];
node36 -> node107 [label=" (1)", labelfontcolor=lightgrey, fontcolor=lightgrey, bold=true, color=lightgrey];
node108 [label="(108) linear", color=lightgrey, labelfontcolor=lightgrey, fontcolor=lightgrey];
node2 -> node108 [label=" (0)", labelfontcolor=lightgrey, fontcolor=lightgrey, bold=true, color=lightgrey];
node109 [label="(109) add", color=lightgrey, labelfontcolor=lightgrey, fontcolor=lightgrey];
node88 -> node109 [label=" (0)", labelfontcolor=lightgrey, fontcolor=lightgrey, bold=true, color=lightgrey];
node57 -> node109 [label=" (1)", labelfontcolor=lightgrey, fontcolor=lightgrey, bold=true, color=lightgrey];
node110 [label="(110) div", color=lightgrey, labelfontcolor=lightgrey, fontcolor=lightgrey];
node87 -> node110 [label=" (0)", labelfontcolor=lightgrey, fontcolor=lightgrey, bold=true, color=lightgrey];
node19 -> node110 [label=" (1)", labelfontcolor=lightgrey, fontcolor=lightgrey, bold=true, color=lightgrey];
node111 [label="(111) div", color=lightgrey, labelfontcolor=lightgrey, fontcolor=lightgrey];
node68 -> node111 [label=" (0)", labelfontcolor=lightgrey, fontcolor=lightgrey, bold=true, color=lightgrey];
node98 -> node111 [label=" (1)", labelfontcolor=lightgrey, fontcolor=lightgrey, bold=true, color=lightgrey];
node112 [label="(112) mul", color=lightgrey, labelfontcolor=lightgrey, fontcolor=lightgrey];
node104 -> node112 [label=" (0)", labelfontcolor=lightgrey, fontcolor=lightgrey, bold=true, color=lightgrey];
node87 -> node112 [label=" (1)", labelfontcolor=lightgrey, fontcolor=lightgrey, bold=true, color=lightgrey];
node113 [label="(113) linear", color=lightgrey, labelfontcolor=lightgrey, fontcolor=lightgrey];
node3 -> node113 [label=" (0)", labelfontcolor=lightgrey, fontcolor=lightgrey, bold=true, color=lightgrey];
node114 [label="(114) sub", color=lightgrey, labelfontcolor=lightgrey, fontcolor=lightgrey];
node52 -> node114 [label=" (0)", labelfontcolor=lightgrey, fontcolor=lightgrey, bold=true, color=lightgrey];
node49 -> node114 [label=" (1)", labelfontcolor=lightgrey, fontcolor=lightgrey, bold=true, color=lightgrey];
node115 [label="(115) hyperbola", color=lightgrey, labelfontcolor=lightgrey, fontcolor=lightgrey];
node2 -> node115 [label=" (0)", labelfontcolor=lightgrey, fontcolor=lightgrey, bold=true, color=lightgrey];
node116 [label="(116) hyperbola", color=lightgrey, labelfontcolor=lightgrey, fontcolor=lightgrey];
node2 -> node116 [label=" (0)", labelfontcolor=lightgrey, fontcolor=lightgrey, bold=true, color=lightgrey];
node117 [label="(117) add", color=lightgrey, labelfontcolor=lightgrey, fontcolor=lightgrey];
node1 -> node117 [label=" (0)", labelfontcolor=lightgrey, fontcolor=lightgrey, bold=true, color=lightgrey];
node2 -> node117 [label=" (1)", labelfontcolor=lightgrey, fontcolor=lightgrey, bold=true, color=lightgrey];
node118 [label="(118) add", color=lightgrey, labelfontcolor=lightgrey, fontcolor=lightgrey];
node5 -> node118 [label=" (0)", labelfontcolor=lightgrey, fontcolor=lightgrey, bold=true, color=lightgrey];
node2 -> node118 [label=" (1)", labelfontcolor=lightgrey, fontcolor=lightgrey, bold=true, color=lightgrey];
node119 [label="(119) div", color=lightgrey, labelfontcolor=lightgrey, fontcolor=lightgrey];
node87 -> node119 [label=" (0)", labelfontcolor=lightgrey, fontcolor=lightgrey, bold=true, color=lightgrey];
node62 -> node119 [label=" (1)", labelfontcolor=lightgrey, fontcolor=lightgrey, bold=true, color=lightgrey];
node120 [label="(120) add", color=lightgrey, labelfontcolor=lightgrey, fontcolor=lightgrey];
node57 -> node120 [label=" (0)", labelfontcolor=lightgrey, fontcolor=lightgrey, bold=true, color=lightgrey];
node0 -> node120 [label=" (1)", labelfontcolor=lightgrey, fontcolor=lightgrey, bold=true, color=lightgrey];
node121 [label="(121) sub", color=lightgrey, labelfontcolor=lightgrey, fontcolor=lightgrey];
node116 -> node121 [label=" (0)", labelfontcolor=lightgrey, fontcolor=lightgrey, bold=true, color=lightgrey];
node104 -> node121 [label=" (1)", labelfontcolor=lightgrey, fontcolor=lightgrey, bold=true, color=lightgrey];
node122 [label="(122) add", color=lightgrey, labelfontcolor=lightgrey, fontcolor=lightgrey];
node41 -> node122 [label=" (0)", labelfontcolor=lightgrey, fontcolor=lightgrey, bold=true, color=lightgrey];
node111 -> node122 [label=" (1)", labelfontcolor=lightgrey, fontcolor=lightgrey, bold=true, color=lightgrey];
node123 [label="(123) sub", color=lightgrey, labelfontcolor=lightgrey, fontcolor=lightgrey];
node1 -> node123 [label=" (0)", labelfontcolor=lightgrey, fontcolor=lightgrey, bold=true, color=lightgrey];
node2 -> node123 [label=" (1)", labelfontcolor=lightgrey, fontcolor=lightgrey, bold=true, color=lightgrey];
node124 [label="(124) sub", color=lightgrey, labelfontcolor=lightgrey, fontcolor=lightgrey];
node14 -> node124 [label=" (0)", labelfontcolor=lightgrey, fontcolor=lightgrey, bold=true, color=lightgrey];
node65 -> node124 [label=" (1)", labelfontcolor=lightgrey, fontcolor=lightgrey, bold=true, color=lightgrey];
node125 [label="(125) add", color=lightgrey, labelfontcolor=lightgrey, fontcolor=lightgrey];
node79 -> node125 [label=" (0)", labelfontcolor=lightgrey, fontcolor=lightgrey, bold=true, color=lightgrey];
node74 -> node125 [label=" (1)", labelfontcolor=lightgrey, fontcolor=lightgrey, bold=true, color=lightgrey];
node126 [label="(126) sub", color=lightgrey, labelfontcolor=lightgrey, fontcolor=lightgrey];
node62 -> node126 [label=" (0)", labelfontcolor=lightgrey, fontcolor=lightgrey, bold=true, color=lightgrey];
node87 -> node126 [label=" (1)", labelfontcolor=lightgrey, fontcolor=lightgrey, bold=true, color=lightgrey];
node127 [label="(127) mul", color=lightgrey, labelfontcolor=lightgrey, fontcolor=lightgrey];
node35 -> node127 [label=" (0)", labelfontcolor=lightgrey, fontcolor=lightgrey, bold=true, color=lightgrey];
node65 -> node127 [label=" (1)", labelfontcolor=lightgrey, fontcolor=lightgrey, bold=true, color=lightgrey];
node128 [label="(128) mul", color=lightgrey, labelfontcolor=lightgrey, fontcolor=lightgrey];
node44 -> node128 [label=" (0)", labelfontcolor=lightgrey, fontcolor=lightgrey, bold=true, color=lightgrey];
node93 -> node128 [label=" (1)", labelfontcolor=lightgrey, fontcolor=lightgrey, bold=true, color=lightgrey];
node129 [label="(129) linear", color=black, labelfontcolor=black, fontcolor=black];
node2 -> node129 [label=" (0)", labelfontcolor=black, fontcolor=black, bold=true, color=black];
node130 [label="(130) mul", color=lightgrey, labelfontcolor=lightgrey, fontcolor=lightgrey];
node87 -> node130 [label=" (0)", labelfontcolor=lightgrey, fontcolor=lightgrey, bold=true, color=lightgrey];
node100 -> node130 [label=" (1)", labelfontcolor=lightgrey, fontcolor=lightgrey, bold=true, color=lightgrey];
node131 [label="(131) sub", color=lightgrey, labelfontcolor=lightgrey, fontcolor=lightgrey];
node2 -> node131 [label=" (0)", labelfontcolor=lightgrey, fontcolor=lightgrey, bold=true, color=lightgrey];
node1 -> node131 [label=" (1)", labelfontcolor=lightgrey, fontcolor=lightgrey, bold=true, color=lightgrey];
node132 [label="(132) linear", color=lightgrey, labelfontcolor=lightgrey, fontcolor=lightgrey];
node2 -> node132 [label=" (0)", labelfontcolor=lightgrey, fontcolor=lightgrey, bold=true, color=lightgrey];
node133 [label="(133) linear", color=lightgrey, labelfontcolor=lightgrey, fontcolor=lightgrey];
node1 -> node133 [label=" (0)", labelfontcolor=lightgrey, fontcolor=lightgrey, bold=true, color=lightgrey];
node134 [label="(134) hyperbola", color=lightgrey, labelfontcolor=lightgrey, fontcolor=lightgrey];
node2 -> node134 [label=" (0)", labelfontcolor=lightgrey, fontcolor=lightgrey, bold=true, color=lightgrey];
node135 [label="(135) linear", color=lightgrey, labelfontcolor=lightgrey, fontcolor=lightgrey];
node1 -> node135 [label=" (0)", labelfontcolor=lightgrey, fontcolor=lightgrey, bold=true, color=lightgrey];
node136 [label="(136) add", color=lightgrey, labelfontcolor=lightgrey, fontcolor=lightgrey];
node2 -> node136 [label=" (0)", labelfontcolor=lightgrey, fontcolor=lightgrey, bold=true, color=lightgrey];
node72 -> node136 [label=" (1)", labelfontcolor=lightgrey, fontcolor=lightgrey, bold=true, color=lightgrey];
node137 [label="(137) linear", color=lightgrey, labelfontcolor=lightgrey, fontcolor=lightgrey];
node2 -> node137 [label=" (0)", labelfontcolor=lightgrey, fontcolor=lightgrey, bold=true, color=lightgrey];
node138 [label="(138) mul", color=lightgrey, labelfontcolor=lightgrey, fontcolor=lightgrey];
node94 -> node138 [label=" (0)", labelfontcolor=lightgrey, fontcolor=lightgrey, bold=true, color=lightgrey];
node0 -> node138 [label=" (1)", labelfontcolor=lightgrey, fontcolor=lightgrey, bold=true, color=lightgrey];
node139 [label="(139) div", color=lightgrey, labelfontcolor=lightgrey, fontcolor=lightgrey];
node92 -> node139 [label=" (0)", labelfontcolor=lightgrey, fontcolor=lightgrey, bold=true, color=lightgrey];
node18 -> node139 [label=" (1)", labelfontcolor=lightgrey, fontcolor=lightgrey, bold=true, color=lightgrey];
node140 [label="(140) hyperbola", color=lightgrey, labelfontcolor=lightgrey, fontcolor=lightgrey];
node1 -> node140 [label=" (0)", labelfontcolor=lightgrey, fontcolor=lightgrey, bold=true, color=lightgrey];
node141 [label="(141) hyperbola", color=lightgrey, labelfontcolor=lightgrey, fontcolor=lightgrey];
node2 -> node141 [label=" (0)", labelfontcolor=lightgrey, fontcolor=lightgrey, bold=true, color=lightgrey];
node142 [label="(142) sub", color=lightgrey, labelfontcolor=lightgrey, fontcolor=lightgrey];
node44 -> node142 [label=" (0)", labelfontcolor=lightgrey, fontcolor=lightgrey, bold=true, color=lightgrey];
node98 -> node142 [label=" (1)", labelfontcolor=lightgrey, fontcolor=lightgrey, bold=true, color=lightgrey];
node143 [label="(143) mul", color=lightgrey, labelfontcolor=lightgrey, fontcolor=lightgrey];
node88 -> node143 [label=" (0)", labelfontcolor=lightgrey, fontcolor=lightgrey, bold=true, color=lightgrey];
node89 -> node143 [label=" (1)", labelfontcolor=lightgrey, fontcolor=lightgrey, bold=true, color=lightgrey];
node144 [label="(144) add", color=lightgrey, labelfontcolor=lightgrey, fontcolor=lightgrey];
node3 -> node144 [label=" (0)", labelfontcolor=lightgrey, fontcolor=lightgrey, bold=true, color=lightgrey];
node110 -> node144 [label=" (1)", labelfontcolor=lightgrey, fontcolor=lightgrey, bold=true, color=lightgrey];
node145 [label="(145) add", color=lightgrey, labelfontcolor=lightgrey, fontcolor=lightgrey];
node3 -> node145 [label=" (0)", labelfontcolor=lightgrey, fontcolor=lightgrey, bold=true, color=lightgrey];
node99 -> node145 [label=" (1)", labelfontcolor=lightgrey, fontcolor=lightgrey, bold=true, color=lightgrey];
node146 [label="(146) div", color=lightgrey, labelfontcolor=lightgrey, fontcolor=lightgrey];
node99 -> node146 [label=" (0)", labelfontcolor=lightgrey, fontcolor=lightgrey, bold=true, color=lightgrey];
node0 -> node146 [label=" (1)", labelfontcolor=lightgrey, fontcolor=lightgrey, bold=true, color=lightgrey];
node147 [label="(147) sub", color=lightgrey, labelfontcolor=lightgrey, fontcolor=lightgrey];
node2 -> node147 [label=" (0)", labelfontcolor=lightgrey, fontcolor=lightgrey, bold=true, color=lightgrey];
node2 -> node147 [label=" (1)", labelfontcolor=lightgrey, fontcolor=lightgrey, bold=true, color=lightgrey];
node148 [label="(148) div", color=lightgrey, labelfontcolor=lightgrey, fontcolor=lightgrey];
node127 -> node148 [label=" (0)", labelfontcolor=lightgrey, fontcolor=lightgrey, bold=true, color=lightgrey];
node146 -> node148 [label=" (1)", labelfontcolor=lightgrey, fontcolor=lightgrey, bold=true, color=lightgrey];
node149 [label="(149) sub", color=lightgrey, labelfontcolor=lightgrey, fontcolor=lightgrey];
node0 -> node149 [label=" (0)", labelfontcolor=lightgrey, fontcolor=lightgrey, bold=true, color=lightgrey];
node0 -> node149 [label=" (1)", labelfontcolor=lightgrey, fontcolor=lightgrey, bold=true, color=lightgrey];
node150 [label="(150) div", color=lightgrey, labelfontcolor=lightgrey, fontcolor=lightgrey];
node18 -> node150 [label=" (0)", labelfontcolor=lightgrey, fontcolor=lightgrey, bold=true, color=lightgrey];
node89 -> node150 [label=" (1)", labelfontcolor=lightgrey, fontcolor=lightgrey, bold=true, color=lightgrey];
node151 [label="(151) add", color=lightgrey, labelfontcolor=lightgrey, fontcolor=lightgrey];
node2 -> node151 [label=" (0)", labelfontcolor=lightgrey, fontcolor=lightgrey, bold=true, color=lightgrey];
node2 -> node151 [label=" (1)", labelfontcolor=lightgrey, fontcolor=lightgrey, bold=true, color=lightgrey];
node152 [label="(152) add", color=lightgrey, labelfontcolor=lightgrey, fontcolor=lightgrey];
node121 -> node152 [label=" (0)", labelfontcolor=lightgrey, fontcolor=lightgrey, bold=true, color=lightgrey];
node2 -> node152 [label=" (1)", labelfontcolor=lightgrey, fontcolor=lightgrey, bold=true, color=lightgrey];
node153 [label="(153) div", color=lightgrey, labelfontcolor=lightgrey, fontcolor=lightgrey];
node133 -> node153 [label=" (0)", labelfontcolor=lightgrey, fontcolor=lightgrey, bold=true, color=lightgrey];
node121 -> node153 [label=" (1)", labelfontcolor=lightgrey, fontcolor=lightgrey, bold=true, color=lightgrey];
node154 [label="(154) add", color=lightgrey, labelfontcolor=lightgrey, fontcolor=lightgrey];
node3 -> node154 [label=" (0)", labelfontcolor=lightgrey, fontcolor=lightgrey, bold=true, color=lightgrey];
node91 -> node154 [label=" (1)", labelfontcolor=lightgrey, fontcolor=lightgrey, bold=true, color=lightgrey];
node155 [label="(155) hyperbola", color=lightgrey, labelfontcolor=lightgrey, fontcolor=lightgrey];
node3 -> node155 [label=" (0)", labelfontcolor=lightgrey, fontcolor=lightgrey, bold=true, color=lightgrey];
node156 [label="(156) hyperbola", color=lightgrey, labelfontcolor=lightgrey, fontcolor=lightgrey];
node1 -> node156 [label=" (0)", labelfontcolor=lightgrey, fontcolor=lightgrey, bold=true, color=lightgrey];
node157 [label="(157) hyperbola", color=lightgrey, labelfontcolor=lightgrey, fontcolor=lightgrey];
node1 -> node157 [label=" (0)", labelfontcolor=lightgrey, fontcolor=lightgrey, bold=true, color=lightgrey];
node158 [label="(158) mul", color=lightgrey, labelfontcolor=lightgrey, fontcolor=lightgrey];
node131 -> node158 [label=" (0)", labelfontcolor=lightgrey, fontcolor=lightgrey, bold=true, color=lightgrey];
node7 -> node158 [label=" (1)", labelfontcolor=lightgrey, fontcolor=lightgrey, bold=true, color=lightgrey];
node159 [label="(159) hyperbola", color=lightgrey, labelfontcolor=lightgrey, fontcolor=lightgrey];
node3 -> node159 [label=" (0)", labelfontcolor=lightgrey, fontcolor=lightgrey, bold=true, color=lightgrey];
node160 [label="(160) hyperbola", color=lightgrey, labelfontcolor=lightgrey, fontcolor=lightgrey];
node2 -> node160 [label=" (0)", labelfontcolor=lightgrey, fontcolor=lightgrey, bold=true, color=lightgrey];
node161 [label="(161) mul", color=lightgrey, labelfontcolor=lightgrey, fontcolor=lightgrey];
node91 -> node161 [label=" (0)", labelfontcolor=lightgrey, fontcolor=lightgrey, bold=true, color=lightgrey];
node79 -> node161 [label=" (1)", labelfontcolor=lightgrey, fontcolor=lightgrey, bold=true, color=lightgrey];
node162 [label="(162) add", color=lightgrey, labelfontcolor=lightgrey, fontcolor=lightgrey];
node120 -> node162 [label=" (0)", labelfontcolor=lightgrey, fontcolor=lightgrey, bold=true, color=lightgrey];
node111 -> node162 [label=" (1)", labelfontcolor=lightgrey, fontcolor=lightgrey, bold=true, color=lightgrey];
node163 [label="(163) div", color=lightgrey, labelfontcolor=lightgrey, fontcolor=lightgrey];
node160 -> node163 [label=" (0)", labelfontcolor=lightgrey, fontcolor=lightgrey, bold=true, color=lightgrey];
node106 -> node163 [label=" (1)", labelfontcolor=lightgrey, fontcolor=lightgrey, bold=true, color=lightgrey];
node164 [label="(164) sub", color=lightgrey, labelfontcolor=lightgrey, fontcolor=lightgrey];
node33 -> node164 [label=" (0)", labelfontcolor=lightgrey, fontcolor=lightgrey, bold=true, color=lightgrey];
node1 -> node164 [label=" (1)", labelfontcolor=lightgrey, fontcolor=lightgrey, bold=true, color=lightgrey];
node165 [label="(165) linear", color=lightgrey, labelfontcolor=lightgrey, fontcolor=lightgrey];
node2 -> node165 [label=" (0)", labelfontcolor=lightgrey, fontcolor=lightgrey, bold=true, color=lightgrey];
node166 [label="(166) div", color=lightgrey, labelfontcolor=lightgrey, fontcolor=lightgrey];
node0 -> node166 [label=" (0)", labelfontcolor=lightgrey, fontcolor=lightgrey, bold=true, color=lightgrey];
node2 -> node166 [label=" (1)", labelfontcolor=lightgrey, fontcolor=lightgrey, bold=true, color=lightgrey];
node167 [label="(167) add", color=lightgrey, labelfontcolor=lightgrey, fontcolor=lightgrey];
node153 -> node167 [label=" (0)", labelfontcolor=lightgrey, fontcolor=lightgrey, bold=true, color=lightgrey];
node101 -> node167 [label=" (1)", labelfontcolor=lightgrey, fontcolor=lightgrey, bold=true, color=lightgrey];
node168 [label="(168) hyperbola", color=lightgrey, labelfontcolor=lightgrey, fontcolor=lightgrey];
node0 -> node168 [label=" (0)", labelfontcolor=lightgrey, fontcolor=lightgrey, bold=true, color=lightgrey];
node169 [label="(169) linear", color=lightgrey, labelfontcolor=lightgrey, fontcolor=lightgrey];
node2 -> node169 [label=" (0)", labelfontcolor=lightgrey, fontcolor=lightgrey, bold=true, color=lightgrey];
node170 [label="(170) add", color=black, labelfontcolor=black, fontcolor=black];
node129 -> node170 [label=" (0)", labelfontcolor=black, fontcolor=black, bold=true, color=black];
node59 -> node170 [label=" (1)", labelfontcolor=black, fontcolor=black, bold=true, color=black];
node171 [label="(171) sub", color=lightgrey, labelfontcolor=lightgrey, fontcolor=lightgrey];
node63 -> node171 [label=" (0)", labelfontcolor=lightgrey, fontcolor=lightgrey, bold=true, color=lightgrey];
node63 -> node171 [label=" (1)", labelfontcolor=lightgrey, fontcolor=lightgrey, bold=true, color=lightgrey];
node172 [label="(172) hyperbola", color=lightgrey, labelfontcolor=lightgrey, fontcolor=lightgrey];
node3 -> node172 [label=" (0)", labelfontcolor=lightgrey, fontcolor=lightgrey, bold=true, color=lightgrey];
node173 [label="(173) mul", color=lightgrey, labelfontcolor=lightgrey, fontcolor=lightgrey];
node2 -> node173 [label=" (0)", labelfontcolor=lightgrey, fontcolor=lightgrey, bold=true, color=lightgrey];
node1 -> node173 [label=" (1)", labelfontcolor=lightgrey, fontcolor=lightgrey, bold=true, color=lightgrey];
node174 [label="(174) linear", color=lightgrey, labelfontcolor=lightgrey, fontcolor=lightgrey];
node0 -> node174 [label=" (0)", labelfontcolor=lightgrey, fontcolor=lightgrey, bold=true, color=lightgrey];
node175 [label="(175) mul", color=lightgrey, labelfontcolor=lightgrey, fontcolor=lightgrey];
node119 -> node175 [label=" (0)", labelfontcolor=lightgrey, fontcolor=lightgrey, bold=true, color=lightgrey];
node63 -> node175 [label=" (1)", labelfontcolor=lightgrey, fontcolor=lightgrey, bold=true, color=lightgrey];
node176 [label="(176) linear", color=lightgrey, labelfontcolor=lightgrey, fontcolor=lightgrey];
node1 -> node176 [label=" (0)", labelfontcolor=lightgrey, fontcolor=lightgrey, bold=true, color=lightgrey];
node177 [label="(177) div", color=lightgrey, labelfontcolor=lightgrey, fontcolor=lightgrey];
node28 -> node177 [label=" (0)", labelfontcolor=lightgrey, fontcolor=lightgrey, bold=true, color=lightgrey];
node101 -> node177 [label=" (1)", labelfontcolor=lightgrey, fontcolor=lightgrey, bold=true, color=lightgrey];
node178 [label="(178) hyperbola", color=lightgrey, labelfontcolor=lightgrey, fontcolor=lightgrey];
node3 -> node178 [label=" (0)", labelfontcolor=lightgrey, fontcolor=lightgrey, bold=true, color=lightgrey];
node179 [label="(179) hyperbola", color=lightgrey, labelfontcolor=lightgrey, fontcolor=lightgrey];
node1 -> node179 [label=" (0)", labelfontcolor=lightgrey, fontcolor=lightgrey, bold=true, color=lightgrey];
node180 [label="(180) mul", color=lightgrey, labelfontcolor=lightgrey, fontcolor=lightgrey];
node0 -> node180 [label=" (0)", labelfontcolor=lightgrey, fontcolor=lightgrey, bold=true, color=lightgrey];
node124 -> node180 [label=" (1)", labelfontcolor=lightgrey, fontcolor=lightgrey, bold=true, color=lightgrey];
node181 [label="(181) mul", color=lightgrey, labelfontcolor=lightgrey, fontcolor=lightgrey];
node43 -> node181 [label=" (0)", labelfontcolor=lightgrey, fontcolor=lightgrey, bold=true, color=lightgrey];
node78 -> node181 [label=" (1)", labelfontcolor=lightgrey, fontcolor=lightgrey, bold=true, color=lightgrey];
node182 [label="(182) add", color=lightgrey, labelfontcolor=lightgrey, fontcolor=lightgrey];
node1 -> node182 [label=" (0)", labelfontcolor=lightgrey, fontcolor=lightgrey, bold=true, color=lightgrey];
node61 -> node182 [label=" (1)", labelfontcolor=lightgrey, fontcolor=lightgrey, bold=true, color=lightgrey];
node183 [label="(183) sub", color=lightgrey, labelfontcolor=lightgrey, fontcolor=lightgrey];
node2 -> node183 [label=" (0)", labelfontcolor=lightgrey, fontcolor=lightgrey, bold=true, color=lightgrey];
node113 -> node183 [label=" (1)", labelfontcolor=lightgrey, fontcolor=lightgrey, bold=true, color=lightgrey];
node184 [label="(184) linear", color=lightgrey, labelfontcolor=lightgrey, fontcolor=lightgrey];
node3 -> node184 [label=" (0)", labelfontcolor=lightgrey, fontcolor=lightgrey, bold=true, color=lightgrey];
node185 [label="(185) hyperbola", color=lightgrey, labelfontcolor=lightgrey, fontcolor=lightgrey];
node2 -> node185 [label=" (0)", labelfontcolor=lightgrey, fontcolor=lightgrey, bold=true, color=lightgrey];
node186 [label="(186) div", color=lightgrey, labelfontcolor=lightgrey, fontcolor=lightgrey];
node72 -> node186 [label=" (0)", labelfontcolor=lightgrey, fontcolor=lightgrey, bold=true, color=lightgrey];
node55 -> node186 [label=" (1)", labelfontcolor=lightgrey, fontcolor=lightgrey, bold=true, color=lightgrey];
node187 [label="(187) linear", color=lightgrey, labelfontcolor=lightgrey, fontcolor=lightgrey];
node0 -> node187 [label=" (0)", labelfontcolor=lightgrey, fontcolor=lightgrey, bold=true, color=lightgrey];
node188 [label="(188) sub", color=lightgrey, labelfontcolor=lightgrey, fontcolor=lightgrey];
node153 -> node188 [label=" (0)", labelfontcolor=lightgrey, fontcolor=lightgrey, bold=true, color=lightgrey];
node1 -> node188 [label=" (1)", labelfontcolor=lightgrey, fontcolor=lightgrey, bold=true, color=lightgrey];
node189 [label="(189) sub", color=lightgrey, labelfontcolor=lightgrey, fontcolor=lightgrey];
node1 -> node189 [label=" (0)", labelfontcolor=lightgrey, fontcolor=lightgrey, bold=true, color=lightgrey];
node151 -> node189 [label=" (1)", labelfontcolor=lightgrey, fontcolor=lightgrey, bold=true, color=lightgrey];
node190 [label="(190) div", color=lightgrey, labelfontcolor=lightgrey, fontcolor=lightgrey];
node0 -> node190 [label=" (0)", labelfontcolor=lightgrey, fontcolor=lightgrey, bold=true, color=lightgrey];
node176 -> node190 [label=" (1)", labelfontcolor=lightgrey, fontcolor=lightgrey, bold=true, color=lightgrey];
node191 [label="(191) hyperbola", color=lightgrey, labelfontcolor=lightgrey, fontcolor=lightgrey];
node2 -> node191 [label=" (0)", labelfontcolor=lightgrey, fontcolor=lightgrey, bold=true, color=lightgrey];
node192 [label="(192) hyperbola", color=lightgrey, labelfontcolor=lightgrey, fontcolor=lightgrey];
node3 -> node192 [label=" (0)", labelfontcolor=lightgrey, fontcolor=lightgrey, bold=true, color=lightgrey];
node193 [label="(193) add", color=lightgrey, labelfontcolor=lightgrey, fontcolor=lightgrey];
node136 -> node193 [label=" (0)", labelfontcolor=lightgrey, fontcolor=lightgrey, bold=true, color=lightgrey];
node51 -> node193 [label=" (1)", labelfontcolor=lightgrey, fontcolor=lightgrey, bold=true, color=lightgrey];
node194 [label="(194) linear", color=lightgrey, labelfontcolor=lightgrey, fontcolor=lightgrey];
node0 -> node194 [label=" (0)", labelfontcolor=lightgrey, fontcolor=lightgrey, bold=true, color=lightgrey];
node195 [label="(195) linear", color=lightgrey, labelfontcolor=lightgrey, fontcolor=lightgrey];
node3 -> node195 [label=" (0)", labelfontcolor=lightgrey, fontcolor=lightgrey, bold=true, color=lightgrey];
node196 [label="(196) add", color=lightgrey, labelfontcolor=lightgrey, fontcolor=lightgrey];
node165 -> node196 [label=" (0)", labelfontcolor=lightgrey, fontcolor=lightgrey, bold=true, color=lightgrey];
node24 -> node196 [label=" (1)", labelfontcolor=lightgrey, fontcolor=lightgrey, bold=true, color=lightgrey];
node197 [label="(197) sub", color=lightgrey, labelfontcolor=lightgrey, fontcolor=lightgrey];
node134 -> node197 [label=" (0)", labelfontcolor=lightgrey, fontcolor=lightgrey, bold=true, color=lightgrey];
node25 -> node197 [label=" (1)", labelfontcolor=lightgrey, fontcolor=lightgrey, bold=true, color=lightgrey];
node198 [label="(198) sub", color=lightgrey, labelfontcolor=lightgrey, fontcolor=lightgrey];
node194 -> node198 [label=" (0)", labelfontcolor=lightgrey, fontcolor=lightgrey, bold=true, color=lightgrey];
node197 -> node198 [label=" (1)", labelfontcolor=lightgrey, fontcolor=lightgrey, bold=true, color=lightgrey];
node199 [label="(199) add", color=lightgrey, labelfontcolor=lightgrey, fontcolor=lightgrey];
node152 -> node199 [label=" (0)", labelfontcolor=lightgrey, fontcolor=lightgrey, bold=true, color=lightgrey];
node0 -> node199 [label=" (1)", labelfontcolor=lightgrey, fontcolor=lightgrey, bold=true, color=lightgrey];
node200 [label="(200) linear", color=lightgrey, labelfontcolor=lightgrey, fontcolor=lightgrey];
node1 -> node200 [label=" (0)", labelfontcolor=lightgrey, fontcolor=lightgrey, bold=true, color=lightgrey];
node201 [label="(201) mul", color=lightgrey, labelfontcolor=lightgrey, fontcolor=lightgrey];
node0 -> node201 [label=" (0)", labelfontcolor=lightgrey, fontcolor=lightgrey, bold=true, color=lightgrey];
node1 -> node201 [label=" (1)", labelfontcolor=lightgrey, fontcolor=lightgrey, bold=true, color=lightgrey];
node202 [label="(202) mul", color=lightgrey, labelfontcolor=lightgrey, fontcolor=lightgrey];
node1 -> node202 [label=" (0)", labelfontcolor=lightgrey, fontcolor=lightgrey, bold=true, color=lightgrey];
node0 -> node202 [label=" (1)", labelfontcolor=lightgrey, fontcolor=lightgrey, bold=true, color=lightgrey];
node203 [label="(203) hyperbola", color=lightgrey, labelfontcolor=lightgrey, fontcolor=lightgrey];
node0 -> node203 [label=" (0)", labelfontcolor=lightgrey, fontcolor=lightgrey, bold=true, color=lightgrey];
node204 [label="Output 0", color=black, labelfontcolor=black, fontcolor=black];
node170 -> node204 [labelfontcolor=black, fontcolor=black, bold=true, color=black];
{ rank = source; "node0"; "node1"; "node2"; "node3"; }
{ rank = max;"node204"; }
}