numInputs = 150;
numNodes = 5045;
numOutputs = 1;
nodeArity = 2;
numGens = 3000;
targetFitness = 0.01;
updateFrequency = 500;
maxMutationConst = 0.1;
0;
0;
0;
0;
0;
0;
0;
0;
0;
0;
0;
0;
0;
0;
0;
0;
0;
0;
0;
0;
0;
0;
0;
0;
0;
0;
0;
0;
0;
0;
0;
0;
0;
0;
0;
0;
0;
0;
0;
0;
0;
0;
0;
0;
0;
0;
0;
0;
0;
0;
0;
0;
0;
0;
0;
0;
0;
0;
0;
0;
0;
0;
0;
0;
0;
0;
0;
0;
0;
0;
0;
0;
0;
0;
0;
0;
0;
0;
0;
0;
0;
0;
0;
0;
0;
0;
0;
0;
0;
0;
0;
0;
0;
0;
0;
0;
0;
0;
0;
0;
0;
0;
0;
0;
0;
0;
0;
0;
0;
0;
0;
0;
0;
0;
0;
0;
0;
0;
0;
0;
0;
0;
0;
0;
0;
0;
0;
0;
0;
0;
0;
0;
0;
0;
0;
0;
0;
0;
0;
0;
0;
0;
0;
0;
0;
0;
0;
0;
0;
0;
0;
0;
0;
0;
0;
0;
0;

0;
0;
0;
0;
0;
0;
0;
275.06;
19.75;
2.06;
57.94;
0.0;
293.72;
21.85;
5.67;
53.5;
0.0;
315.15;
25.79;
8.83;
59.31;
0.0;
328.68;
18.58;
8.95;
67.44;
0.0;
337.52;
19.87;
8.04;
61.75;
0.0;
325.86;
19.5;
6.23;
60.44;
0.0;
347.65;
17.83;
8.49;
68.06;
0.02;
332.73;
20.53;
8.06;
64.06;
0.06;
337.16;
18.61;
9.71;
61.06;
0.19;
315.17;
19.11;
7.74;
65.25;
0.0;
296.74;
21.14;
6.09;
56.31;
0.0;
337.15;
18.7;
8.9;
71.31;
4.93;
340.66;
18.17;
9.57;
71.38;
0.11;
353.93;
17.97;
10.41;
72.44;
3.13;
331.26;
17.35;
7.68;
72.69;
0.72;
290.46;
18.85;
5.49;
62.38;
0.0;
335.26;
22.12;
9.19;
64.31;
0.0;
337.45;
21.26;
10.24;
67.5;
0.07;
340.62;
18.39;
10.2;
76.44;
1.85;
336.49;
19.62;
8.26;
71.81;
1.03;
344.08;
19.53;
8.65;
70.88;
1.41;
357.07;
17.57;
11.94;
75.31;
0.95;
343.02;
14.8;
10.69;
65.06;
1.01;
346.94;
15.62;
10.4;
79.06;
4.24;
334.05;
19.19;
7.89;
76.06;
0.12;
13.688434087372745;
13.73787549587472;
13.7869800682071;
13.835733256951853;
13.884120179013099;
13.932125614679656;
13.979734007671857;
14.026929466223049;
14.073695765246704;
14.120016349639764;
14.16587433877265;
14.211252532215548;
14.25613341674956;
14.300499174709728;
14.344331693705154;
14.38761257775884;
14.430323159907134;
14.4724445162951;
14.513957481800293;
14.554842667212649;
14.595080477993255;
14.634651134628808;
14.673534694592302;
14.711711075913376;
14.74916008235417;

1;
1;
1;
1;
0;
1;
1;
69.01999999999998;
3.4400000000000013;
6.59;
12.939999999999998;
1.53;
75.5;
3.91;
8.52;
21.810000000000002;
0.95;
46.76000000000005;
1.1799999999999997;
4.359999999999999;
5.75;
1.11;
26.349999999999966;
5.430000000000003;
1.83;
11.620000000000005;
4.25;
12.050000000000011;
6.879999999999999;
2.83;
14.310000000000002;
4.27;
40.099999999999966;
9.29;
6.02;
11.310000000000002;
8.46;
10.57000000000005;
7.390000000000001;
4.27;
9.0;
4.04;
40.06999999999999;
4.77;
4.24;
3.6299999999999955;
0.06;
13.829999999999984;
5.010000000000002;
3.8599999999999994;
8.5;
2.13;
39.00999999999999;
5.77;
3.41;
3.9399999999999977;
0.16;
80.32999999999998;
0.8499999999999979;
7.68;
25.129999999999995;
7.81;
32.19;
3.370000000000001;
3.26;
15.810000000000002;
2.87;
16.069999999999993;
5.879999999999999;
1.9399999999999995;
8.240000000000009;
4.279999999999999;
15.050000000000011;
6.25;
2.0700000000000003;
6.680000000000007;
20.82;
39.75;
3.7099999999999973;
6.130000000000001;
14.060000000000002;
16.11;
87.20000000000005;
5.049999999999997;
6.879999999999999;
23.559999999999995;
7.18;
36.48000000000002;
1.8499999999999979;
4.140000000000001;
19.75;
9.43;
41.28000000000003;
3.3199999999999967;
4.5600000000000005;
17.25;
2.18;
33.21999999999997;
4.939999999999998;
4.09;
6.3700000000000045;
4.48;
50.0;
1.5;
7.220000000000001;
15.629999999999995;
12.46;
46.47000000000003;
3.66;
6.539999999999999;
16.430000000000007;
20.24;
12.150000000000034;
7.449999999999999;
2.25;
6.939999999999998;
5.92;
29.680000000000007;
11.399999999999999;
2.5;
25.189999999999998;
8.82;
19.180000000000007;
5.390000000000002;
3.24;
7.439999999999998;
7.039999999999999;
16.689999999999998;
4.41;
3.55;
2.5600000000000023;
4.1499999999999995;
0.9066463906205104;
0.8967756387540877;
0.8865546263852018;
0.8759778189615233;
0.8650399033410707;
0.853735815498597;
0.8420607688194917;
0.8300102829000711;
0.817580212762774;
0.8047667783844865;
0.7915665944257171;
0.7779767000378985;
0.7639945886156916;
0.7496182373509797;
0.7348461364355003;
0.7196773177497331;
0.7041113828670547;
0.6881485301944021;
0.6717895810636669;
0.6550360045826373;
0.6378899410496714;
0.6203542237335657;
0.6024323988186921;
0.5841287433161213;
0.5654482807437944;