numInputs = 150;
numNodes = 5045;
numOutputs = 1;
nodeArity = 2;
numGens = 3000;
targetFitness = 0.01;
updateFrequency = 500;
maxMutationConst = 0.1;
0;
0;
0;
0;
0;
0;
0;
0;
0;
0;
0;
0;
0;
0;
0;
0;
0;
0;
0;
0;
0;
0;
0;
0;
0;
0;
0;
0;
0;
0;
0;
0;
0;
0;
0;
0;
0;
0;
0;
0;
0;
0;
0;
0;
0;
0;
0;
0;
0;
0;
0;
0;
0;
0;
0;
0;
0;
0;
0;
0;
0;
0;
0;
0;
0;
0;
0;
0;
0;
0;
0;
0;
0;
0;
0;
0;
0;
0;
0;
0;
0;
0;
0;
0;
0;
0;
0;
0;
0;
0;
0;
0;
0;
0;
0;
0;
0;
0;
0;
0;
0;
0;
0;
0;
0;
0;
0;
0;
0;
0;
0;
0;
0;
0;
0;
0;
0;
0;
0;
0;
0;
0;
0;
0;
0;
0;
0;
0;
0;
0;
0;
0;
0;
0;
0;
0;
0;
0;
0;
0;
0;
0;
0;
0;
0;
0;
0;
0;
0;
0;

275.06;
15.76;
2.06;
57.94;
0.0;
278.58;
18.64;
5.67;
53.5;
0.0;
287.23;
14.44;
6.77;
59.31;
0.0;
292.01;
14.61;
3.42;
66.69;
0.0;
287.87;
17.83;
4.65;
59.69;
0.0;
297.7;
19.5;
4.65;
60.44;
0.0;
319.52;
17.83;
8.16;
63.5;
0.0;
327.02;
19.26;
8.06;
64.06;
0.06;
314.7;
18.61;
6.62;
52.38;
0.0;
315.17;
16.58;
7.74;
49.69;
0.0;
296.74;
19.82;
6.09;
50.69;
0.0;
304.39;
15.13;
6.28;
53.12;
0.0;
317.96;
15.79;
7.07;
60.12;
0.11;
336.51;
13.63;
6.03;
63.56;
0.01;
316.34;
17.35;
6.04;
62.88;
0.01;
290.46;
12.14;
5.49;
62.38;
0.0;
335.26;
15.01;
8.35;
64.31;
0.0;
310.38;
18.57;
6.1;
62.5;
0.07;
301.29;
17.55;
3.73;
56.94;
0.0;
311.67;
19.62;
8.16;
59.88;
0.0;
322.39;
19.53;
8.65;
56.69;
0.0;
338.5;
17.57;
11.94;
63.38;
0.0;
343.02;
14.8;
10.69;
64.5;
0.0;
344.74;
15.62;
10.4;
60.62;
0.02;
326.52;
19.19;
7.89;
56.31;
0.01;
13.688434087372745;
13.73787549587472;
13.7869800682071;
13.835733256951853;
13.884120179013099;
13.932125614679656;
13.979734007671857;
14.026929466223049;
14.073695765246704;
14.120016349639764;
14.16587433877265;
14.211252532215548;
14.25613341674956;
14.300499174709728;
14.344331693705154;
14.38761257775884;
14.430323159907134;
14.4724445162951;
14.513957481800293;
14.554842667212649;
14.595080477993255;
14.634651134628808;
14.673534694592302;
14.711711075913376;
14.74916008235417;

69.01999999999998;
7.4300000000000015;
6.59;
15.620000000000005;
1.53;
90.64000000000004;
7.120000000000001;
8.52;
21.810000000000002;
0.95;
74.68;
12.53;
6.42;
19.069999999999993;
1.88;
63.01999999999998;
11.95;
7.640000000000001;
12.370000000000005;
4.25;
61.69999999999999;
10.080000000000002;
8.61;
16.370000000000005;
4.27;
68.25999999999999;
9.29;
7.6;
11.310000000000002;
8.46;
45.360000000000014;
10.100000000000001;
4.959999999999999;
13.560000000000002;
4.06;
45.78000000000003;
6.039999999999999;
4.24;
10.629999999999995;
12.129999999999999;
36.29000000000002;
5.010000000000002;
6.95;
23.43;
2.32;
39.00999999999999;
8.3;
3.41;
27.620000000000005;
0.84;
80.32999999999998;
2.169999999999998;
7.68;
30.75;
7.81;
64.94999999999999;
6.99;
5.88;
34.00000000000001;
7.8;
38.77000000000004;
8.260000000000002;
4.4399999999999995;
20.190000000000005;
8.14;
32.47000000000003;
10.589999999999998;
6.45;
15.560000000000002;
23.939999999999998;
54.670000000000016;
6.259999999999998;
7.7700000000000005;
23.869999999999997;
16.819999999999997;
87.20000000000005;
11.759999999999998;
6.879999999999999;
23.559999999999995;
7.2;
36.48000000000002;
8.959999999999999;
4.98;
23.069999999999993;
9.43;
68.35000000000002;
6.009999999999998;
8.700000000000001;
22.25;
2.18;
72.54999999999995;
5.779999999999998;
10.559999999999999;
25.870000000000005;
6.33;
74.82;
1.6600000000000001;
7.32;
27.559999999999995;
13.49;
68.16000000000003;
5.369999999999997;
6.539999999999999;
30.620000000000005;
21.65;
30.720000000000027;
9.280000000000001;
2.25;
18.869999999999997;
6.87;
29.680000000000007;
15.579999999999998;
4.17;
25.75;
9.83;
25.099999999999966;
15.700000000000001;
9.020000000000001;
25.880000000000003;
11.26;
30.350000000000023;
10.0;
9.439999999999998;
22.310000000000002;
4.26;
0.9066463906205104;
0.8967756387540877;
0.8865546263852018;
0.8759778189615233;
0.8650399033410707;
0.853735815498597;
0.8420607688194917;
0.8300102829000711;
0.817580212762774;
0.8047667783844865;
0.7915665944257171;
0.7779767000378985;
0.7639945886156916;
0.7496182373509797;
0.7348461364355003;
0.7196773177497331;
0.7041113828670547;
0.6881485301944021;
0.6717895810636669;
0.6550360045826373;
0.6378899410496714;
0.6203542237335657;
0.6024323988186921;
0.5841287433161213;
0.5654482807437944;