^C:\USERS\ВАЛЕНТИН\SOURCE\REPOS\PROJECT8\PROJECT8\RELEASE\CGP.OBJ|C:\USERS\ВАЛЕНТИН\SOURCE\REPOS\PROJECT8\PROJECT8\RELEASE\CREATEDATA.OBJ|C:\USERS\ВАЛЕНТИН\SOURCE\REPOS\PROJECT8\PROJECT8\RELEASE\MAIN.OBJ
C:\PROGRAM FILES (X86)\WINDOWS KITS\10\LIB\10.0.17763.0\UM\X86\KERNEL32.LIB
C:\PROGRAM FILES (X86)\WINDOWS KITS\10\LIB\10.0.17763.0\UM\X86\USER32.LIB
C:\PROGRAM FILES (X86)\WINDOWS KITS\10\LIB\10.0.17763.0\UM\X86\GDI32.LIB
C:\PROGRAM FILES (X86)\WINDOWS KITS\10\LIB\10.0.17763.0\UM\X86\WINSPOOL.LIB
C:\PROGRAM FILES (X86)\WINDOWS KITS\10\LIB\10.0.17763.0\UM\X86\COMDLG32.LIB
C:\PROGRAM FILES (X86)\WINDOWS KITS\10\LIB\10.0.17763.0\UM\X86\ADVAPI32.LIB
C:\PROGRAM FILES (X86)\WINDOWS KITS\10\LIB\10.0.17763.0\UM\X86\SHELL32.LIB
C:\PROGRAM FILES (X86)\WINDOWS KITS\10\LIB\10.0.17763.0\UM\X86\OLE32.LIB
C:\PROGRAM FILES (X86)\WINDOWS KITS\10\LIB\10.0.17763.0\UM\X86\OLEAUT32.LIB
C:\PROGRAM FILES (X86)\WINDOWS KITS\10\LIB\10.0.17763.0\UM\X86\UUID.LIB
C:\PROGRAM FILES (X86)\WINDOWS KITS\10\LIB\10.0.17763.0\UM\X86\ODBC32.LIB
C:\PROGRAM FILES (X86)\WINDOWS KITS\10\LIB\10.0.17763.0\UM\X86\ODBCCP32.LIB
C:\USERS\валентин\SOURCE\REPOS\PROJECT8\PROJECT8\RELEASE\CGP.OBJ
C:\USERS\валентин\SOURCE\REPOS\PROJECT8\PROJECT8\RELEASE\CREATEDATA.OBJ
C:\USERS\валентин\SOURCE\REPOS\PROJECT8\PROJECT8\RELEASE\MAIN.OBJ
C:\WINDOWS\GLOBALIZATION\SORTING\SORTDEFAULT.NLS
D:\VS\VC\TOOLS\MSVC\14.16.27023\BIN\HOSTX86\X86\C2.DLL
D:\VS\VC\TOOLS\MSVC\14.16.27023\LIB\X86\MSVCRT.LIB
D:\VS\VC\TOOLS\MSVC\14.16.27023\LIB\X86\OLDNAMES.LIB
D:\VS\VC\TOOLS\MSVC\14.16.27023\LIB\X86\VCRUNTIME.LIB
C:\PROGRAM FILES (X86)\WINDOWS KITS\10\LIB\10.0.17763.0\UCRT\X86\UCRT.LIB
C:\WINDOWS\SYSTEM32\TZRES.DLL
D:\VS\VC\TOOLS\MSVC\14.16.27023\BIN\HOSTX86\X86\1049\LINKUI.DLL
C:\PROGRAM FILES (X86)\WINDOWS KITS\10\BIN\10.0.17763.0\X86\RC.EXE
D:\VS\VC\TOOLS\MSVC\14.16.27023\BIN\HOSTX86\X86\CVTRES.EXE
D:\VS\VC\TOOLS\MSVC\14.16.27023\BIN\HOSTX86\X86\MSPDBSRV.EXE
